<svg id="Layer_1" data-name="Layer 1" xmlns="http://www.w3.org/2000/svg" viewBox="0 0 60 80">
  <defs>
    <style>.cls-1{fill:#fff;stroke:#00aef0;stroke-miterlimit:10;stroke-width:5px;}</style>
  </defs>
  <title>two-column</title>
  <rect class="cls-1" width="35" height="80"/>
  <rect class="cls-1" x="35" width="25" height="80"/>
</svg>
