<svg xmlns="http://www.w3.org/2000/svg" width="67" height="67" viewBox="0 0 67 67">
  <path fill="#FFF"
        d="M-174-1v67h26V38h-4v-8h4v-4.8c0-1.4.9-12.2 12.2-12.2h9.8v10h-7.7c-1.2 0-2.3 2.5-2.3 3.4V30h8.2c-.3 7-1 8-1 8h-7.2v28h29V-1h-67zM-87 0v67h67V0h-67zm52.9 24.5v1.1c0 11.7-8.8 25.2-24.8 25.2-4.9 0-9.5-1.5-13.3-4 .7.1 1.4.1 2.1.1 4.1 0 7.8-1.4 10.8-3.8-3.8-.1-7-2.6-8.1-6.2.5.1 1.1.2 1.6.2.8 0 1.3-.1 2-.3-4-.8-7.2-4.4-7.2-8.7V28c3 .7 2.8 1.1 4.2 1.1-2.3-1.6-3.7-4.3-3.7-7.4 0-1.6.5-3.1 1.2-4.5 4.3 5.4 10.7 8.9 18 9.3-.1-.6-.2-1.3-.2-2 0-4.9 3.9-8.9 8.7-8.9 2.5 0 4.8 1.1 6.4 2.8 2-.4 3.8-1.1 5.5-2.2-.6 2.1-2 3.8-3.8 4.9 1.8-.2 3.4-.7 5-1.4-1.2 2-2.7 3.5-4.4 4.8zM87-1v67h67V-1H87zm24.2 40.7c-4.5 0-8.2-3.6-8.2-8s3.7-8 8.2-8 8.2 3.6 8.2 8-3.7 8-8.2 8zm20.1 0c-4.5 0-8.2-3.6-8.2-8s3.7-8 8.2-8c4.5 0 8.2 3.6 8.2 8s-3.7 8-8.2 8z"/>
  <g fill="#FFF">
    <path d="M28 40.4l13.5-8.9-13.5-9"/>
    <path
      d="M0 0v67h67V0H0zm57 41.8c0 3.9-1.9 8.2-5.8 8.2H18.1c-3.9 0-7.1-4.2-7.1-8.2v-19c0-3.9 3.2-6.9 7.1-6.9h33.2c3.9 0 5.8 3 5.8 6.9v19z"/>
  </g>
</svg>
